{
  "endRow": 10,
  "firstPage": 1,
  "hasNextPage": true,
  "hasPreviousPage": false,
  "isFirstPage": true,
  "isLastPage": false,
  "lastPage": 8,
  "list": [
    {
      "categoryCode": "other",
      "content": "",
      "createdTime": 1521909998000,
      "id": 83,
      "isDeleted": 0,
      "isTop": 0,
      "picture": "",
      "summary": "之前使用的持续集成工具是jenkins，现在发现一枚类似的产品，关键是她和idea是同一个公司开发的，那么是不是可以无缝集成到idea中呢？",
      "title": "持续集成工具TeamCity的安装和使用",
      "updatedTime": null
    },
    {
      "categoryCode": "other",
      "content": "",
      "createdTime": 1521909919000,
      "id": 82,
      "isDeleted": 0,
      "isTop": 0,
      "picture": "",
      "summary": "SN这边使用的是jboss服务器，还使用的jndi，所以就需要在jboss上配置jbdi了，下面是具体配置过程",
      "title": "在jboss上配置jndi",
      "updatedTime": null
    },
    {
      "categoryCode": "linux",
      "content": "",
      "createdTime": 1521909846000,
      "id": 81,
      "isDeleted": 0,
      "isTop": 0,
      "picture": "",
      "summary": "netstat 命令用于显示各种网络相关信息，如网络连接，路由表，接口状态 (Interface Statistics)，masquerade 连接，多播成员 (Multicast Memberships) 等等",
      "title": "使用netstat查看端口占用情况",
      "updatedTime": null
    },
    {
      "categoryCode": "server",
      "content": "",
      "createdTime": 1521909820000,
      "id": 80,
      "isDeleted": 0,
      "isTop": 0,
      "picture": "",
      "summary": "这是一个小项目，用于解析编译时的源代码，有点类似el表达式的感觉，不过这是基于编译时的",
      "title": "Java Compile Expression Language",
      "updatedTime": null
    },
    {
      "categoryCode": "other",
      "content": "",
      "createdTime": 1521909745000,
      "id": 79,
      "isDeleted": 0,
      "isTop": 1,
      "picture": "",
      "summary": "通常我们都是依赖别人的jar包，感觉别人的jar包无所不能，有时候自己也有好的想法，也想打成jar包给别人使用，下面是我在mac系统上发布jar包到中央仓库的记录",
      "title": "在mac上发布jar包到中央仓库",
      "updatedTime": null
    },
    {
      "categoryCode": "server",
      "content": "",
      "createdTime": 1521909716000,
      "id": 78,
      "isDeleted": 0,
      "isTop": 1,
      "picture": "",
      "summary": "我之前打印方法的出参、入参以及耗时，都是在方法上加上运行时注解，然后通过aop切面去实现。觉得有些地方可以再优化一下",
      "title": "利用编译时注解增强方法",
      "updatedTime": null
    },
    {
      "categoryCode": "other",
      "content": "",
      "createdTime": 1521909666000,
      "id": 77,
      "isDeleted": 0,
      "isTop": 0,
      "picture": "",
      "summary": "我发现在做类似cms内容管理系统的时候，其实很多都是对于表的维护。 说白了就是一些增删改查，因此我开发了一个模块，可以一键生成增删改查所有代码",
      "title": "一键生成通用增删改查从前端到后台的所有代码",
      "updatedTime": null
    },
    {
      "categoryCode": "other",
      "content": "",
      "createdTime": 1521909629000,
      "id": 76,
      "isDeleted": 0,
      "isTop": 0,
      "picture": "",
      "summary": "我的网站中使用的是百度分享，但是它不支持https的网站，二我的网站正好是https的，下面就是解决方案",
      "title": "让百度分享支持https的网站",
      "updatedTime": null
    },
    {
      "categoryCode": "web",
      "content": "",
      "createdTime": 1521909569000,
      "id": 75,
      "isDeleted": 0,
      "isTop": 0,
      "picture": "",
      "summary": "这是不依赖于js，而是使用css3的动画来实现的加载中...",
      "title": "CSS3实现加载中的动画效果",
      "updatedTime": null
    },
    {
      "categoryCode": "other",
      "content": "",
      "createdTime": 1521909507000,
      "id": 74,
      "isDeleted": 0,
      "isTop": 0,
      "picture": "",
      "summary": "无意中发现了一些不为人知的一些东西，下面我就来分享一下",
      "title": "IntelliJ IDEA自动生成setter方法丢失is",
      "updatedTime": null
    }
  ],
  "navigatePages": 8,
  "navigatepageNums": [
    1,
    2,
    3,
    4,
    5,
    6,
    7,
    8
  ],
  "nextPage": 2,
  "orderBy": "",
  "pageNum": 1,
  "pageSize": 10,
  "pages": 9,
  "prePage": 0,
  "size": 10,
  "startRow": 1,
  "total": 83
}
